{
  "ap": {
    "serial-number": "161205002059",
    "provisioning-data": {
      "name": "AP1"
    },
    "wlan-status": {
      "total-count": 1,
      "wlans": [
        {
          "bssid": "C0:8A:DE:1D:89:E8"
        }
      ]
    },
    "extended-status": {
      "internal-ip": "172.16.110.248",
      "external-ip": "12.217.161.130",
      "hops": "0",
      "tunnel-type": "0",
      "name": "AP1",
      "uptime": 710971
    },
    "radio-status": {
      "tx-power": "max",
      "channel": 5,
      "channel-width": 0,
      "wlan-count": 1,
      "mode": "11ng"
    },
    "status": {
      "model": "ZF7321",
      "mac-address": "C0:8A:DE:1D:89:E0",
      "registration-status": "Approved",
      "connection-status": "Connected",
      "config-status": "completed",
      "last-seen-by-vscg": "2015-05-13T23:47:18.252+00:00",
      "SWver": "3.0.3.0.457",
      "location": "Here"
    }
  }
}